Prueba/Prueba Verilog y Vhdl/simulation/qsim/prueba.msim.vcd
$comment
	File created using the following command:
		vcd file prueba.msim.vcd -direction
$end
$date
	Fri Nov 29 17:10:15 2019
$end
$version
	ModelSim Version 10.1d
$end
$timescale
	1ps
$end
$scope module prueba_vhd_vec_tst $end
$var wire 1 ! in0a $end
$var wire 1 " in0o $end
$var wire 1 # in1a $end
$var wire 1 $ in1o $end
$var wire 1 % output_a $end
$var wire 1 & output_o $end
$scope module i1 $end
$var wire 1 ' gnd $end
$var wire 1 ( vcc $end
$var wire 1 ) unknown $end
$var wire 1 * devoe $end
$var wire 1 + devclrn $end
$var wire 1 , devpor $end
$var wire 1 - ww_devoe $end
$var wire 1 . ww_devclrn $end
$var wire 1 / ww_devpor $end
$var wire 1 0 ww_in0a $end
$var wire 1 1 ww_in1a $end
$var wire 1 2 ww_in0o $end
$var wire 1 3 ww_in1o $end
$var wire 1 4 ww_output_a $end
$var wire 1 5 ww_output_o $end
$var wire 1 6 \output_a~output_o\ $end
$var wire 1 7 \output_o~output_o\ $end
$var wire 1 8 \in0a~input_o\ $end
$var wire 1 9 \in1a~input_o\ $end
$var wire 1 : \Module_0|Salida~combout\ $end
$var wire 1 ; \in0o~input_o\ $end
$var wire 1 < \in1o~input_o\ $end
$var wire 1 = \Module_1|outbit~combout\ $end
$upscope $end
$upscope $end
$enddefinitions $end
#0
$dumpvars
0!
0"
0#
0$
0%
0&
0'
1(
x)
1*
1+
1,
1-
1.
1/
00
01
02
03
04
05
06
07
08
09
0:
0;
0<
0=
$end
#50000
1#
1$
11
13
1<
19
1=
17
15
1&
#100000
0#
0$
1!
1"
01
03
10
12
1;
18
0<
09
#150000
1#
1$
11
13
1<
19
1:
16
14
1%
#200000
0#
0$
0!
0"
01
03
00
02
0;
08
0<
09
0:
0=
07
06
05
04
0&
0%
#250000
1#
1$
11
13
1<
19
1=
17
15
1&
#300000
0#
0$
1!
1"
01
03
10
12
1;
18
0<
09
#350000
1#
1$
11
13
1<
19
1:
16
14
1%
#400000
0#
0$
0!
0"
01
03
00
02
0;
08
0<
09
0:
0=
07
06
05
04
0&
0%
#450000
1#
1$
11
13
1<
19
1=
17
15
1&
#500000
0#
0$
1!
1"
01
03
10
12
1;
18
0<
09
#550000
1#
1$
11
13
1<
19
1:
16
14
1%
#600000
0#
0$
0!
0"
01
03
00
02
0;
08
0<
09
0:
0=
07
06
05
04
0&
0%
#650000
1#
1$
11
13
1<
19
1=
17
15
1&
#700000
0#
0$
1!
1"
01
03
10
12
1;
18
0<
09
#750000
1#
1$
11
13
1<
19
1:
16
14
1%
#800000
0#
0$
0!
0"
01
03
00
02
0;
08
0<
09
0:
0=
07
06
05
04
0&
0%
#850000
1#
1$
11
13
1<
19
1=
17
15
1&
#900000
0#
0$
1!
1"
01
03
10
12
1;
18
0<
09
#950000
1#
1$
11
13
1<
19
1:
16
14
1%
